…
# get the maximum time
max_t <- max(Picea_sim$time)

# Filter example to extract the size distribution
Picea_sim %>% 
    dplyr::filter(grepl("m", var), time == max_t) %>% 
    dplyr::select(size, value)
#> # A tibble: 700 × 2
#>     size value
#>    <dbl> <dbl>
#>  1  90.8  1.25
#>  2  92.4  2.26
#>  3  94.0  2.01
#>  4  95.6  1.93
#>  5  97.2  1.85
#>  6  98.8  1.78
#>  7 100.   1.71
#>  8 102.   1.65
#>  9 104.   1.59
#> 10 105.   1.53
#> # … with 690 more rows
```
…
